2017-10-21T14:21:09+00:00 INFO GEOIP (geoip_country_id_by_addr_v6): PHP was compiled with --disable-ipv6 option
2017-10-21T14:21:10+00:00 INFO GEOIP (geoip_country_id_by_addr_v6): PHP was compiled with --disable-ipv6 option
2017-10-21T14:21:13+00:00 INFO GEOIP (geoip_country_id_by_addr_v6): PHP was compiled with --disable-ipv6 option
2017-10-21T14:21:13+00:00 INFO GEOIP (geoip_country_id_by_addr_v6): PHP was compiled with --disable-ipv6 option
